(123, '_site_transient_community-events-d41d8cd98f00b204e9800998ecf8427e', 'a:3:{s:9:\"sandboxed\";b:0;s:8:\"location\";a:1:{s:2:\"ip\";b:0;}s:6:\"events\";a:2:{i:0;a:10:{s:4:\"type\";s:8:\"wordcamp\";s:5:\"title\";s:25:\"WordCamp Philadelphia, PA\";s:3:\"url\";s:39:\"https://philadelphia.wordcamp.org/2020/\";s:6:\"meetup\";N;s:10:\"meetup_url\";N;s:4:\"date\";s:19:\"2020-09-26 09:15:00\";s:8:\"end_date\";s:19:\"2020-09-26 09:15:00\";s:20:\"start_unix_timestamp\";i:1601126100;s:18:\"end_unix_timestamp\";i:1601126100;s:8:\"location\";a:4:{s:8:\"location\";s:6:\"Online\";s:7:\"country\";s:2:\"US\";s:8:\"latitude\";d:39.9525839;s:9:\"longitude\";d:-75.1652215;}}i:1;a:10:{s:4:\"type\";s:8:\"wordcamp\";s:5:\"title\";s:27:\"WordCamp Rochester, NY, USA\";s:3:\"url\";s:36:\"https://2020.rochester.wordcamp.org/\";s:6:\"meetup\";N;s:10:\"meetup_url\";N;s:4:\"date\";s:19:\"2020-10-03 08:35:00\";s:8:\"end_date\";s:19:\"2020-10-03 08:35:00\";s:20:\"start_unix_timestamp\";i:1601728500;s:18:\"end_unix_timestamp\";i:1601728500;s:8:\"location\";a:4:{s:8:\"location\";s:6:\"Online\";s:7:\"country\";s:2:\"US\";s:8:\"latitude\";d:43.1565779;s:9:\"longitude\";d:-77.6088465;}}}}', 'no'),
(590, 'wp_custom_client_icon', 'http://everylisting.localhost/wp-content/uploads/2020/08/CustomClient.jpg', 'yes'),
(934, 513040, '_wp_attached_file', '2020/08/logoalone_black_on_white_lg.jpg'),
(935, 513040, '_wp_attachment_metadata', 'a:5:{s:5:\"width\";i:689;s:6:\"height\";i:920;s:4:\"file\";s:39:\"2020/08/logoalone_black_on_white_lg.jpg\";s:5:\"sizes\";a:5:{s:6:\"medium\";a:4:{s:4:\"file\";s:39:\"logoalone_black_on_white_lg-225x300.jpg\";s:5:\"width\";i:225;s:6:\"height\";i:300;s:9:\"mime-type\";s:10:\"image/jpeg\";}s:9:\"thumbnail\";a:4:{s:4:\"file\";s:39:\"logoalone_black_on_white_lg-150x150.jpg\";s:5:\"width\";i:150;s:6:\"height\";i:150;s:9:\"mime-type\";s:10:\"image/jpeg\";}s:14:\"post-thumbnail\";a:4:{s:4:\"file\";s:39:\"logoalone_black_on_white_lg-689x570.jpg\";s:5:\"width\";i:689;s:6:\"height\";i:570;s:9:\"mime-type\";s:10:\"image/jpeg\";}s:22:\"inspiry-grid-thumbnail\";a:4:{s:4:\"file\";s:39:\"logoalone_black_on_white_lg-660x600.jpg\";s:5:\"width\";i:660;s:6:\"height\";i:600;s:9:\"mime-type\";s:10:\"image/jpeg\";}s:23:\"inspiry-agent-thumbnail\";a:4:{s:4:\"file\";s:39:\"logoalone_black_on_white_lg-220x220.jpg\";s:5:\"width\";i:220;s:6:\"height\";i:220;s:9:\"mime-type\";s:10:\"image/jpeg\";}}s:10:\"image_meta\";a:12:{s:8:\"aperture\";s:1:\"0\";s:6:\"credit\";s:0:\"\";s:6:\"camera\";s:0:\"\";s:7:\"caption\";s:0:\"\";s:17:\"created_timestamp\";s:1:\"0\";s:9:\"copyright\";s:0:\"\";s:12:\"focal_length\";s:1:\"0\";s:3:\"iso\";s:1:\"0\";s:13:\"shutter_speed\";s:1:\"0\";s:5:\"title\";s:0:\"\";s:11:\"orientation\";s:1:\"1\";s:8:\"keywords\";a:0:{}}}'),
(941, 513043, '_wp_attachment_metadata', 'a:5:{s:5:\"width\";i:60;s:6:\"height\";i:60;s:4:\"file\";s:24:\"2020/08/CustomClient.jpg\";s:5:\"sizes\";a:0:{}s:10:\"image_meta\";a:12:{s:8:\"aperture\";s:1:\"0\";s:6:\"credit\";s:0:\"\";s:6:\"camera\";s:0:\"\";s:7:\"caption\";s:0:\"\";s:17:\"created_timestamp\";s:1:\"0\";s:9:\"copyright\";s:0:\"\";s:12:\"focal_length\";s:1:\"0\";s:3:\"iso\";s:1:\"0\";s:13:\"shutter_speed\";s:1:\"0\";s:5:\"title\";s:0:\"\";s:11:\"orientation\";s:1:\"1\";s:8:\"keywords\";a:0:{}}}'),
(7031, 513347, '_wp_attached_file', '2020/08/everylisting.WordPress.2020-08-15.xml_.txt'),